{
  "name": "playstationStoreDeals",
  "app_id": "801025ec",
  "proxies": [
    {
      "path": "/",
      "proxyUrl": "http://master.dev"
    }
  ],
  "type": "ionic-angular",
  "integrations": {
    "cordova": {}
  }
}
